…
# Loading data

We are going to work again with the **ditch** dataset from the [Zur et al 2007](https://www.highstat.com/index.php/analysing-ecological-data) book.


```r
ditch_data_original <- read_csv(here("data", "ditch.csv"))

ditch_data_original
```

```
## # A tibble: 48 × 18
##    Site    Year Month Depth    pH Conductivity   BOD Ammoniacal_Nitrogen
##    <chr>  <dbl> <dbl> <dbl> <dbl>        <dbl> <dbl>               <dbl>
##  1 Site 1  1997    11 NA     7.62          511   7.1                 0.1
##  2 Site 1  1999     1  0.4   8.51          778   7.9                 0.2
##  3 Site 1  1999     4  0.25  7.71          517   3.6                 0.1
##  4 Site 1  1999     7  0.4   7.77         1892   3.4                 0.1
##  5 Site 1  1999    10  0.5   8.04         1600   4.2                 1.2
##  6 Site 1  2000     1  0.2   8.06          889   4.5                 0.8
##  7 Site 1  2000     4  0.75  7.72         1010   2                   0.1
##  8 Site 1  2000     7  0.1   7.94         1460   5.5                 0.3
##  9 Site 1  2000    10  0.75  7.21         1050   3.1                 0.6
## 10 Site 1  2001     1  0.1   7.7          1760  14                   3.4
## # … with 38 more rows, and 10 more variables: Total_Oxidised_Nitrogen <dbl>,
## #   Suspended_Solids <dbl>, Chloride <dbl>, Sulphate <dbl>,
## #   Total_Calcium <dbl>, Total_Zinc <dbl>, Total_Cadmium <dbl>,
## #   Total_Lead <dbl>, Total_Nickel <dbl>, Total_Phosphate <dbl>
```
# Data preparation


```r
ditch_data <- ditch_data_original %>% 
  clean_names() %>% 
  pivot_longer(cols = -c(site, year, month, depth),
               names_to = "parameter",
               values_to = "value")

ditch_data
```

```
## # A tibble: 672 × 6
##    site    year month depth parameter                value
##    <chr>  <dbl> <dbl> <dbl> <chr>                    <dbl>
##  1 Site 1  1997    11    NA p_h                       7.62
##  2 Site 1  1997    11    NA conductivity            511   
##  3 Site 1  1997    11    NA bod                       7.1 
##  4 Site 1  1997    11    NA ammoniacal_nitrogen       0.1 
##  5 Site 1  1997    11    NA total_oxidised_nitrogen   1.42
##  6 Site 1  1997    11    NA suspended_solids        441   
##  7 Site 1  1997    11    NA chloride                 43   
##  8 Site 1  1997    11    NA sulphate                 63   
##  9 Site 1  1997    11    NA total_calcium           104   
## 10 Site 1  1997    11    NA total_zinc                0.18
## # … with 662 more rows
```
…
